module ws_listener

go 1.19

require (
	github.com/gorilla/websocket v1.5.0
	github.com/nats-io/nats.go v1.23.0
	github.com/pelletier/go-toml v1.9.5
)

require (
	github.com/golang/protobuf v1.5.2 // indirect
	github.com/nats-io/nats-server/v2 v2.9.11 // indirect
	github.com/nats-io/nkeys v0.3.0 // indirect
	github.com/nats-io/nuid v1.0.1 // indirect
	golang.org/x/crypto v0.5.0 // indirect
	google.golang.org/protobuf v1.28.1 // indirect
)
